…
Let us try to see how many incidents we have by animal group. Again, we can do this either using group_by() and summarise(), or by using count()

animal_rescue %>% 
  group_by(animal_group_parent) %>% 
  summarise(count = n()) %>% 
  mutate(percent = round(100*count/sum(count),2)) %>% 
  arrange(desc(percent))

## # A tibble: 28 × 3
##    animal_group_parent              count percent
##    <chr>                            <int>   <dbl>
##  1 Cat                               3829   48.2 
##  2 Bird                              1638   20.6 
##  3 Dog                               1242   15.6 
##  4 Fox                                380    4.78
##  5 Unknown - Domestic Animal Or Pet   202    2.54
##  6 Horse                              195    2.45
##  7 Deer                               137    1.72
##  8 Unknown - Wild Animal               95    1.19
##  9 Squirrel                            71    0.89
## 10 Unknown - Heavy Livestock Animal    50    0.63
## # … with 18 more rows

animal_rescue %>% 
  count(animal_group_parent, name="count", sort=TRUE) %>% 
  mutate(percent = round(100*count/sum(count),2))

## # A tibble: 28 × 3
##    animal_group_parent              count percent
##    <chr>                            <int>   <dbl>
##  1 Cat                               3829   48.2 
##  2 Bird                              1638   20.6 
##  3 Dog                               1242   15.6 
##  4 Fox                                380    4.78
##  5 Unknown - Domestic Animal Or Pet   202    2.54
##  6 Horse                              195    2.45
##  7 Deer                               137    1.72
##  8 Unknown - Wild Animal               95    1.19
##  9 Squirrel                            71    0.89
## 10 Unknown - Heavy Livestock Animal    50    0.63
## # … with 18 more rows
…
