…
Is there any value among the common values that stands out?

What is the likely intended purpose for Airbnb listings with this
seemingly unusual value for minimum_nights?

Filter the airbnb data so that it only includes observations with
minimum_nights <= 4

#most common value for minimum_nights
listings_prop %>%
  group_by(minimum_nights) %>%
  count(sort=TRUE)

# A tibble: 66 × 2
# Groups:   minimum_nights [66]
   minimum_nights     n
            <dbl> <int>
 1              2  2871
 2              3  2149
 3              1  1757
 4              4  1017
 5              5   790
 6              7   368
 7              6   231
 8             14    86
 9             30    75
10             10    46
# … with 56 more rows
…
